{
"type": "FeatureCollection",
"name": "kalilembu",
"crs": { "type": "name", "properties": { "name": "urn:ogc:def:crs:OGC:1.3:CRS84" } },
"features": [
{ "type": "Feature", "properties": { "name": "tmp" }, "geometry": { "type": "MultiLineString", "coordinates": [ [ [ 109.91903473, -7.20559549, 0.0 ], [ 109.91896975, -7.20558822, 0.0 ], [ 109.91895169, -7.20554409, 0.0 ], [ 109.91892392, -7.20550529, 0.0 ], [ 109.91892981, -7.20545375, 0.0 ], [ 109.91894839, -7.20540639, 0.0 ], [ 109.91897097, -7.20536003, 0.0 ], [ 109.91898123, -7.2053114, 0.0 ], [ 109.91899414, -7.20526473, 0.0 ], [ 109.91900198, -7.20521191, 0.0 ], [ 109.91898961, -7.20516323, 0.0 ], [ 109.91899785, -7.20511769, 0.0 ], [ 109.91900374, -7.20507084, 0.0 ], [ 109.91900479, -7.20501766, 0.0 ], [ 109.91900839, -7.20497222, 0.0 ], [ 109.91901307, -7.20492407, 0.0 ], [ 109.91902298, -7.2048698, 0.0 ], [ 109.91903638, -7.20482421, 0.0 ], [ 109.91905275, -7.20477328, 0.0 ], [ 109.91907646, -7.20473334, 0.0 ], [ 109.91910254, -7.20468552, 0.0 ], [ 109.91912215, -7.20463724, 0.0 ], [ 109.9191398, -7.20458384, 0.0 ], [ 109.91915432, -7.20453393, 0.0 ], [ 109.9191565, -7.20448271, 0.0 ], [ 109.91916694, -7.20443852, 0.0 ], [ 109.9191756, -7.20438824, 0.0 ], [ 109.9191915, -7.2043398, 0.0 ], [ 109.9191984, -7.20428841, 0.0 ], [ 109.91920004, -7.20424128, 0.0 ], [ 109.91918618, -7.20419426, 0.0 ], [ 109.91918351, -7.20414809, 0.0 ], [ 109.9191759, -7.20410309, 0.0 ], [ 109.91916895, -7.2040508, 0.0 ], [ 109.9191547, -7.2040066, 0.0 ], [ 109.91915315, -7.20395688, 0.0 ], [ 109.91915476, -7.20390724, 0.0 ], [ 109.91916612, -7.20386042, 0.0 ], [ 109.91917769, -7.20381597, 0.0 ], [ 109.91918893, -7.203771, 0.0 ], [ 109.919196, -7.20372253, 0.0 ], [ 109.91920307, -7.20367196, 0.0 ], [ 109.91919478, -7.20362241, 0.0 ], [ 109.91918201, -7.20357301, 0.0 ], [ 109.91916922, -7.2035217, 0.0 ], [ 109.91916132, -7.20347688, 0.0 ], [ 109.91915473, -7.20342233, 0.0 ], [ 109.91915863, -7.20337588, 0.0 ], [ 109.91915744, -7.20332828, 0.0 ], [ 109.91913877, -7.20327667, 0.0 ], [ 109.91913958, -7.20322353, 0.0 ], [ 109.91916243, -7.20318318, 0.0 ], [ 109.91916722, -7.20312925, 0.0 ], [ 109.91915542, -7.20308346, 0.0 ], [ 109.91914216, -7.20303343, 0.0 ], [ 109.91914747, -7.20297661, 0.0 ], [ 109.91916595, -7.20292989, 0.0 ], [ 109.91919085, -7.20288789, 0.0 ], [ 109.91921607, -7.20284778, 0.0 ], [ 109.91922086, -7.20279692, 0.0 ], [ 109.91923282, -7.20274887, 0.0 ], [ 109.91924908, -7.20270037, 0.0 ], [ 109.91925968, -7.20264905, 0.0 ], [ 109.9192503, -7.20260013, 0.0 ], [ 109.91925212, -7.20255328, 0.0 ], [ 109.91925538, -7.20250528, 0.0 ], [ 109.91926009, -7.20245282, 0.0 ], [ 109.91926089, -7.20240194, 0.0 ], [ 109.91925691, -7.20235582, 0.0 ], [ 109.91925116, -7.20230217, 0.0 ], [ 109.9192468, -7.20225625, 0.0 ], [ 109.91924897, -7.20220779, 0.0 ], [ 109.91922415, -7.20216078, 0.0 ], [ 109.91921357, -7.20211582, 0.0 ], [ 109.91921985, -7.20206453, 0.0 ], [ 109.91923388, -7.20201356, 0.0 ], [ 109.91925919, -7.20197213, 0.0 ], [ 109.91930233, -7.20194594, 0.0 ], [ 109.91933593, -7.20191082, 0.0 ], [ 109.91937026, -7.20187372, 0.0 ], [ 109.91941463, -7.20184058, 0.0 ], [ 109.9194562, -7.20181771, 0.0 ], [ 109.91949909, -7.20179225, 0.0 ], [ 109.91954408, -7.20178558, 0.0 ], [ 109.91959181, -7.20176933, 0.0 ], [ 109.91963742, -7.20176233, 0.0 ], [ 109.91968968, -7.20175651, 0.0 ], [ 109.91973967, -7.20175786, 0.0 ], [ 109.91978873, -7.20175638, 0.0 ], [ 109.91983995, -7.20175429, 0.0 ], [ 109.91989016, -7.2017569, 0.0 ], [ 109.91994215, -7.20174578, 0.0 ], [ 109.91998813, -7.20174591, 0.0 ], [ 109.92002945, -7.20176689, 0.0 ], [ 109.92007228, -7.20179949, 0.0 ], [ 109.92012138, -7.20181958, 0.0 ], [ 109.92017466, -7.20181623, 0.0 ], [ 109.92022224, -7.20180042, 0.0 ], [ 109.92025534, -7.20176536, 0.0 ], [ 109.92028621, -7.20172429, 0.0 ], [ 109.920309, -7.20168409, 0.0 ], [ 109.92028422, -7.20164386, 0.0 ], [ 109.92029355, -7.20159759, 0.0 ], [ 109.92024613, -7.20159769, 0.0 ], [ 109.92019733, -7.20160708, 0.0 ], [ 109.92015014, -7.20160479, 0.0 ], [ 109.92011376, -7.20157381, 0.0 ], [ 109.92008358, -7.20153966, 0.0 ], [ 109.92004972, -7.20150166, 0.0 ], [ 109.92002713, -7.20146138, 0.0 ], [ 109.91999649, -7.20142575, 0.0 ], [ 109.91999747, -7.20137885, 0.0 ], [ 109.91994946, -7.20136534, 0.0 ], [ 109.9199534, -7.20131898, 0.0 ], [ 109.91993917, -7.20127363, 0.0 ], [ 109.91993083, -7.20122814, 0.0 ], [ 109.91991438, -7.20118579, 0.0 ], [ 109.91988495, -7.2011452, 0.0 ], [ 109.9198509, -7.20110771, 0.0 ], [ 109.91982436, -7.20106934, 0.0 ], [ 109.91978978, -7.20103951, 0.0 ], [ 109.91979701, -7.20097798, 0.0 ], [ 109.91982649, -7.20093275, 0.0 ], [ 109.91985696, -7.20089765, 0.0 ], [ 109.91985899, -7.20085146, 0.0 ], [ 109.91981589, -7.20083164, 0.0 ], [ 109.91979809, -7.20078384, 0.0 ], [ 109.91980018, -7.20073508, 0.0 ], [ 109.91982589, -7.20069736, 0.0 ], [ 109.91981049, -7.20065159, 0.0 ], [ 109.91983286, -7.20061136, 0.0 ], [ 109.91984133, -7.20056493, 0.0 ], [ 109.91985404, -7.20051282, 0.0 ], [ 109.91986771, -7.200465, 0.0 ], [ 109.91988291, -7.20042215, 0.0 ], [ 109.91989105, -7.20037684, 0.0 ], [ 109.91987, -7.20033538, 0.0 ], [ 109.91986362, -7.20028848, 0.0 ], [ 109.91984491, -7.200246, 0.0 ], [ 109.91981496, -7.20021074, 0.0 ], [ 109.91977902, -7.20017308, 0.0 ], [ 109.91974054, -7.20014067, 0.0 ], [ 109.91970969, -7.2001044, 0.0 ], [ 109.91967888, -7.20006996, 0.0 ], [ 109.91963527, -7.20004867, 0.0 ], [ 109.91959845, -7.20002167, 0.0 ], [ 109.9196085, -7.19997678, 0.0 ], [ 109.91959221, -7.19993446, 0.0 ], [ 109.91956012, -7.19989973, 0.0 ], [ 109.91956836, -7.19985188, 0.0 ], [ 109.91959594, -7.19981432, 0.0 ], [ 109.91958558, -7.19976835, 0.0 ], [ 109.91958587, -7.19972209, 0.0 ], [ 109.9196149, -7.1996832, 0.0 ], [ 109.91959707, -7.1996344, 0.0 ], [ 109.9196243, -7.19956475, 0.0 ], [ 109.91967078, -7.19956399, 0.0 ], [ 109.91971548, -7.19955411, 0.0 ], [ 109.91975639, -7.19953137, 0.0 ], [ 109.91980372, -7.19953501, 0.0 ], [ 109.91983724, -7.19960025, 0.0 ], [ 109.91988464, -7.19960398, 0.0 ], [ 109.91992815, -7.19963142, 0.0 ], [ 109.91997455, -7.19964524, 0.0 ], [ 109.92001897, -7.19963439, 0.0 ], [ 109.92006816, -7.19962105, 0.0 ], [ 109.92011832, -7.19964021, 0.0 ], [ 109.92014633, -7.19967832, 0.0 ], [ 109.92019308, -7.19967403, 0.0 ], [ 109.92030175, -7.19965341, 0.0 ], [ 109.92034446, -7.19963297, 0.0 ], [ 109.92038262, -7.19959907, 0.0 ], [ 109.92039595, -7.1995458, 0.0 ], [ 109.92039805, -7.19949612, 0.0 ], [ 109.92042926, -7.19945872, 0.0 ], [ 109.92046589, -7.19942138, 0.0 ], [ 109.92049394, -7.1993752, 0.0 ], [ 109.92051864, -7.19932865, 0.0 ], [ 109.92052882, -7.19928277, 0.0 ], [ 109.92053577, -7.19923288, 0.0 ], [ 109.9205438, -7.19918384, 0.0 ], [ 109.92055736, -7.19913792, 0.0 ], [ 109.92060507, -7.19912762, 0.0 ], [ 109.92065567, -7.19914177, 0.0 ], [ 109.92070342, -7.19912402, 0.0 ], [ 109.92075013, -7.19911068, 0.0 ], [ 109.92079995, -7.19910184, 0.0 ], [ 109.92083778, -7.19906081, 0.0 ], [ 109.92087154, -7.19902872, 0.0 ], [ 109.92090586, -7.19899012, 0.0 ], [ 109.92092083, -7.19894196, 0.0 ], [ 109.92092049, -7.19889613, 0.0 ], [ 109.92090115, -7.19885076, 0.0 ], [ 109.92090728, -7.19879812, 0.0 ], [ 109.92095046, -7.19875098, 0.0 ], [ 109.92100483, -7.19873034, 0.0 ], [ 109.92101182, -7.19868294, 0.0 ], [ 109.92105074, -7.19865379, 0.0 ], [ 109.92108666, -7.19861719, 0.0 ], [ 109.92110669, -7.19857175, 0.0 ], [ 109.9211239, -7.19852685, 0.0 ], [ 109.92114627, -7.19848187, 0.0 ], [ 109.92117496, -7.19843892, 0.0 ], [ 109.92122401, -7.19840262, 0.0 ], [ 109.9212693, -7.19838541, 0.0 ], [ 109.92130467, -7.19835671, 0.0 ], [ 109.92133232, -7.19831474, 0.0 ], [ 109.92137355, -7.19829203, 0.0 ], [ 109.92140534, -7.19825856, 0.0 ], [ 109.92143137, -7.19822033, 0.0 ], [ 109.92145959, -7.19818277, 0.0 ], [ 109.92147931, -7.1981415, 0.0 ], [ 109.92150603, -7.19809509, 0.0 ], [ 109.92155213, -7.19806413, 0.0 ], [ 109.92160014, -7.19805189, 0.0 ], [ 109.92164772, -7.19803205, 0.0 ], [ 109.92168032, -7.19798765, 0.0 ], [ 109.92172875, -7.19797358, 0.0 ], [ 109.92178176, -7.19796111, 0.0 ], [ 109.92182951, -7.19794233, 0.0 ], [ 109.92186285, -7.19790684, 0.0 ], [ 109.92189856, -7.19786832, 0.0 ], [ 109.92193224, -7.19783489, 0.0 ], [ 109.92192905, -7.19778325, 0.0 ], [ 109.92192234, -7.19773558, 0.0 ], [ 109.92192339, -7.1976876, 0.0 ], [ 109.92191363, -7.19763906, 0.0 ], [ 109.92191682, -7.19758929, 0.0 ], [ 109.92194636, -7.19755225, 0.0 ], [ 109.92193601, -7.19750609, 0.0 ], [ 109.92192025, -7.19746331, 0.0 ], [ 109.92189939, -7.1974179, 0.0 ], [ 109.92188616, -7.1973699, 0.0 ], [ 109.92188214, -7.19732086, 0.0 ], [ 109.92188788, -7.19727339, 0.0 ], [ 109.92190399, -7.1972305, 0.0 ], [ 109.92192555, -7.19719026, 0.0 ], [ 109.92193028, -7.19714061, 0.0 ], [ 109.92194726, -7.19709319, 0.0 ], [ 109.9219642, -7.19704775, 0.0 ], [ 109.9219574, -7.19700086, 0.0 ], [ 109.92194915, -7.196956, 0.0 ], [ 109.9219867, -7.1969197, 0.0 ], [ 109.92202462, -7.19688613, 0.0 ], [ 109.92204172, -7.19684324, 0.0 ], [ 109.92202182, -7.19680227, 0.0 ], [ 109.92202774, -7.19675594, 0.0 ], [ 109.92205436, -7.19671305, 0.0 ], [ 109.92207797, -7.19667076, 0.0 ], [ 109.92210598, -7.19663171, 0.0 ], [ 109.92213248, -7.19660575, 0.0 ], [ 109.9221422, -7.19655801, 0.0 ], [ 109.92210006, -7.19653136, 0.0 ], [ 109.92209505, -7.19648498, 0.0 ], [ 109.92208987, -7.19643237, 0.0 ], [ 109.92208039, -7.19642239, 0.0 ], [ 109.922045, -7.19638099, 0.0 ], [ 109.9220366, -7.19633613, 0.0 ], [ 109.9220498, -7.19628247, 0.0 ], [ 109.92207288, -7.19624152, 0.0 ], [ 109.92210579, -7.19620543, 0.0 ], [ 109.92211206, -7.19615788, 0.0 ], [ 109.92210978, -7.19610599, 0.0 ], [ 109.92211298, -7.19605786, 0.0 ], [ 109.92213866, -7.19601206, 0.0 ], [ 109.92217349, -7.1959761, 0.0 ], [ 109.92221431, -7.19594364, 0.0 ], [ 109.92224411, -7.19590917, 0.0 ], [ 109.92225761, -7.19585687, 0.0 ], [ 109.92230205, -7.19584013, 0.0 ], [ 109.9223384, -7.19581194, 0.0 ], [ 109.92238531, -7.19578677, 0.0 ], [ 109.92242155, -7.1957581, 0.0 ], [ 109.92245084, -7.19571627, 0.0 ], [ 109.92246392, -7.1956729, 0.0 ], [ 109.9224666, -7.19562358, 0.0 ], [ 109.92247872, -7.19557808, 0.0 ], [ 109.92249104, -7.19553233, 0.0 ], [ 109.92247392, -7.19548431, 0.0 ], [ 109.92244267, -7.19545087, 0.0 ], [ 109.92240529, -7.19542396, 0.0 ], [ 109.92236487, -7.19539523, 0.0 ], [ 109.92232078, -7.19537834, 0.0 ], [ 109.92228971, -7.19533912, 0.0 ], [ 109.9222548, -7.19530965, 0.0 ], [ 109.92221887, -7.19527508, 0.0 ], [ 109.92218873, -7.19523758, 0.0 ], [ 109.92217652, -7.19518884, 0.0 ], [ 109.9221645, -7.19514362, 0.0 ], [ 109.92215834, -7.1950944, 0.0 ], [ 109.92219194, -7.19506117, 0.0 ], [ 109.92223465, -7.19504053, 0.0 ], [ 109.92222791, -7.19498405, 0.0 ], [ 109.92223654, -7.19493486, 0.0 ], [ 109.92226034, -7.19489525, 0.0 ], [ 109.92227645, -7.19484534, 0.0 ], [ 109.92227944, -7.19478954, 0.0 ], [ 109.92228272, -7.19474076, 0.0 ], [ 109.92226501, -7.19469848, 0.0 ], [ 109.92226198, -7.19464998, 0.0 ], [ 109.92223545, -7.1946098, 0.0 ], [ 109.92222787, -7.19456469, 0.0 ], [ 109.92224091, -7.19451684, 0.0 ], [ 109.92224202, -7.19447088, 0.0 ], [ 109.92223415, -7.19442276, 0.0 ], [ 109.92222483, -7.1943744, 0.0 ], [ 109.92224352, -7.19433162, 0.0 ], [ 109.92228887, -7.19431774, 0.0 ], [ 109.92232307, -7.19428745, 0.0 ], [ 109.92231547, -7.19423681, 0.0 ], [ 109.92232362, -7.19419041, 0.0 ], [ 109.92232895, -7.19414342, 0.0 ], [ 109.92234352, -7.19409686, 0.0 ], [ 109.92236942, -7.19405906, 0.0 ], [ 109.9223958, -7.19402144, 0.0 ], [ 109.92236139, -7.19399058, 0.0 ], [ 109.92234128, -7.19394751, 0.0 ], [ 109.92232891, -7.19390117, 0.0 ], [ 109.9222954, -7.19386557, 0.0 ], [ 109.92225059, -7.19384605, 0.0 ], [ 109.92216423, -7.19384615, 0.0 ], [ 109.92213435, -7.19382082, 0.0 ], [ 109.92209218, -7.19379269, 0.0 ], [ 109.92204073, -7.19378457, 0.0 ], [ 109.92199577, -7.19376139, 0.0 ], [ 109.92195568, -7.19373743, 0.0 ], [ 109.92190794, -7.19374871, 0.0 ], [ 109.921858, -7.1937461, 0.0 ], [ 109.92181489, -7.19373023, 0.0 ], [ 109.92178013, -7.19369617, 0.0 ], [ 109.92176315, -7.19365293, 0.0 ], [ 109.9217461, -7.19360213, 0.0 ], [ 109.92176379, -7.19355716, 0.0 ], [ 109.92177247, -7.19350738, 0.0 ], [ 109.92176656, -7.19345782, 0.0 ], [ 109.92170493, -7.19340992, 0.0 ], [ 109.92166373, -7.19338276, 0.0 ], [ 109.92162359, -7.19335032, 0.0 ], [ 109.92159031, -7.1933135, 0.0 ], [ 109.92155493, -7.19328444, 0.0 ], [ 109.92150321, -7.19328593, 0.0 ], [ 109.92147255, -7.19324726, 0.0 ], [ 109.92146496, -7.19320219, 0.0 ], [ 109.9214878, -7.19316228, 0.0 ], [ 109.92150945, -7.19312133, 0.0 ], [ 109.92146874, -7.19308267, 0.0 ], [ 109.92150513, -7.19305034, 0.0 ], [ 109.92153123, -7.19301117, 0.0 ], [ 109.92151022, -7.19297051, 0.0 ], [ 109.92152391, -7.19292205, 0.0 ], [ 109.92150665, -7.19287586, 0.0 ], [ 109.92149104, -7.19282239, 0.0 ], [ 109.92146597, -7.19277121, 0.0 ], [ 109.92144577, -7.19272254, 0.0 ], [ 109.92143132, -7.19267576, 0.0 ], [ 109.9213832, -7.19264926, 0.0 ], [ 109.92133256, -7.19263753, 0.0 ], [ 109.9213136, -7.19259221, 0.0 ], [ 109.9212771, -7.19256369, 0.0 ], [ 109.92123961, -7.19253686, 0.0 ], [ 109.92119069, -7.19253193, 0.0 ], [ 109.92117802, -7.1924848, 0.0 ], [ 109.92116892, -7.19243859, 0.0 ], [ 109.9211582, -7.1923934, 0.0 ], [ 109.92118618, -7.19235734, 0.0 ], [ 109.92120937, -7.19231232, 0.0 ], [ 109.92124964, -7.19229101, 0.0 ], [ 109.92129957, -7.19228309, 0.0 ], [ 109.92134759, -7.1922687, 0.0 ], [ 109.92139266, -7.19224455, 0.0 ], [ 109.92143194, -7.19222154, 0.0 ], [ 109.92142697, -7.1921692, 0.0 ], [ 109.92142063, -7.19210082, 0.0 ], [ 109.92142991, -7.19205596, 0.0 ], [ 109.92145683, -7.19201068, 0.0 ], [ 109.9215091, -7.19200227, 0.0 ], [ 109.92155941, -7.19200827, 0.0 ], [ 109.92160695, -7.19200049, 0.0 ], [ 109.92165162, -7.19199085, 0.0 ], [ 109.92170104, -7.1919815, 0.0 ], [ 109.92174136, -7.19194409, 0.0 ], [ 109.92175058, -7.19189088, 0.0 ], [ 109.92180953, -7.19187864, 0.0 ], [ 109.92185562, -7.19186723, 0.0 ], [ 109.92187919, -7.19182523, 0.0 ], [ 109.92187382, -7.19177831, 0.0 ], [ 109.92187129, -7.19172753, 0.0 ], [ 109.92185916, -7.19167968, 0.0 ], [ 109.921818, -7.19165611, 0.0 ], [ 109.92179713, -7.19161576, 0.0 ], [ 109.92179598, -7.19157038, 0.0 ], [ 109.92180664, -7.19152611, 0.0 ], [ 109.92179774, -7.19147985, 0.0 ], [ 109.92181559, -7.19143756, 0.0 ], [ 109.92179976, -7.19139608, 0.0 ], [ 109.92181388, -7.19134214, 0.0 ], [ 109.92179682, -7.19129983, 0.0 ], [ 109.92178147, -7.19125316, 0.0 ], [ 109.92175754, -7.19120798, 0.0 ], [ 109.92178615, -7.19117153, 0.0 ], [ 109.92177871, -7.1911243, 0.0 ], [ 109.92180283, -7.19108603, 0.0 ], [ 109.92183877, -7.19108427, 0.0 ], [ 109.92187793, -7.19106416, 0.0 ], [ 109.92193, -7.1910722, 0.0 ], [ 109.92196455, -7.19103711, 0.0 ], [ 109.92195237, -7.19098536, 0.0 ], [ 109.92199772, -7.19098649, 0.0 ], [ 109.92204898, -7.19099427, 0.0 ], [ 109.92209607, -7.19095286, 0.0 ], [ 109.92212873, -7.19091524, 0.0 ], [ 109.92214531, -7.19092039, 0.0 ], [ 109.9221801, -7.19088888, 0.0 ], [ 109.92222345, -7.1908652, 0.0 ], [ 109.92217794, -7.19087863, 0.0 ], [ 109.9222244, -7.19086334, 0.0 ], [ 109.92226814, -7.19083871, 0.0 ], [ 109.92230863, -7.1908048, 0.0 ], [ 109.92232862, -7.19076211, 0.0 ], [ 109.92234309, -7.19075369, 0.0 ], [ 109.92238487, -7.19078852, 0.0 ], [ 109.92242253, -7.19081613, 0.0 ], [ 109.9224647, -7.19083967, 0.0 ], [ 109.92248169, -7.19088165, 0.0 ], [ 109.92252507, -7.19090118, 0.0 ], [ 109.92255524, -7.19094182, 0.0 ], [ 109.92259604, -7.19097583, 0.0 ], [ 109.92263571, -7.19100488, 0.0 ], [ 109.92267625, -7.19102751, 0.0 ], [ 109.92272078, -7.19101919, 0.0 ], [ 109.92275526, -7.19098446, 0.0 ], [ 109.92280041, -7.19097368, 0.0 ], [ 109.92281322, -7.19092822, 0.0 ], [ 109.92286055, -7.19092631, 0.0 ], [ 109.92289271, -7.19089321, 0.0 ], [ 109.92289034, -7.19084449, 0.0 ], [ 109.9228964, -7.19079629, 0.0 ], [ 109.92289118, -7.19075003, 0.0 ], [ 109.92292036, -7.19071243, 0.0 ], [ 109.92294273, -7.19067048, 0.0 ], [ 109.92294541, -7.19062527, 0.0 ], [ 109.92295463, -7.1905749, 0.0 ], [ 109.92293374, -7.19052681, 0.0 ], [ 109.92291621, -7.1904847, 0.0 ], [ 109.92290363, -7.19043234, 0.0 ], [ 109.92289713, -7.19038598, 0.0 ], [ 109.92288255, -7.19034247, 0.0 ], [ 109.92287213, -7.19029682, 0.0 ], [ 109.92287313, -7.19024806, 0.0 ], [ 109.92289963, -7.19020062, 0.0 ], [ 109.92292189, -7.19016094, 0.0 ], [ 109.92293828, -7.19011298, 0.0 ], [ 109.92296168, -7.19006764, 0.0 ], [ 109.92299007, -7.19003104, 0.0 ], [ 109.92301336, -7.18998552, 0.0 ], [ 109.9230525, -7.18994717, 0.0 ], [ 109.92308394, -7.18991056, 0.0 ], [ 109.92306233, -7.18986676, 0.0 ], [ 109.92303736, -7.18982841, 0.0 ], [ 109.92301756, -7.1897872, 0.0 ], [ 109.92300516, -7.18974359, 0.0 ], [ 109.92297255, -7.1897069, 0.0 ], [ 109.92293112, -7.18967719, 0.0 ], [ 109.92289255, -7.18964546, 0.0 ], [ 109.92284439, -7.18961935, 0.0 ], [ 109.92280574, -7.18958154, 0.0 ], [ 109.92277285, -7.18954444, 0.0 ], [ 109.92272979, -7.18951314, 0.0 ], [ 109.92269885, -7.18947658, 0.0 ], [ 109.92267219, -7.18943452, 0.0 ], [ 109.92267701, -7.18938904, 0.0 ], [ 109.92268959, -7.18934463, 0.0 ], [ 109.92268798, -7.18929728, 0.0 ], [ 109.92265837, -7.18926022, 0.0 ], [ 109.92262356, -7.1892272, 0.0 ], [ 109.92263935, -7.18918472, 0.0 ], [ 109.92263379, -7.18913455, 0.0 ], [ 109.92261185, -7.18909333, 0.0 ], [ 109.92263892, -7.18904772, 0.0 ], [ 109.92263706, -7.18900169, 0.0 ], [ 109.92266909, -7.18896423, 0.0 ], [ 109.92268559, -7.18891789, 0.0 ], [ 109.922703, -7.1888713, 0.0 ], [ 109.92274787, -7.18886303, 0.0 ], [ 109.92275722, -7.18881555, 0.0 ], [ 109.92277996, -7.18877316, 0.0 ], [ 109.92277374, -7.18872504, 0.0 ], [ 109.92280697, -7.18869419, 0.0 ], [ 109.92284542, -7.18866711, 0.0 ], [ 109.92288449, -7.1886399, 0.0 ], [ 109.9229323, -7.18864259, 0.0 ], [ 109.92294953, -7.18860059, 0.0 ], [ 109.92298709, -7.18857134, 0.0 ], [ 109.92303339, -7.18855348, 0.0 ], [ 109.92306868, -7.18855995, 0.0 ], [ 109.92308765, -7.18851445, 0.0 ], [ 109.92310866, -7.18847339, 0.0 ], [ 109.92306734, -7.18845259, 0.0 ], [ 109.92303961, -7.18841633, 0.0 ], [ 109.92298912, -7.18841915, 0.0 ], [ 109.92294898, -7.18839083, 0.0 ], [ 109.92296294, -7.18832554, 0.0 ], [ 109.92295601, -7.18827811, 0.0 ], [ 109.92299433, -7.18824843, 0.0 ], [ 109.92298951, -7.1881987, 0.0 ], [ 109.92299216, -7.18815208, 0.0 ], [ 109.923001, -7.1881054, 0.0 ], [ 109.92303073, -7.18807099, 0.0 ], [ 109.92307657, -7.18805116, 0.0 ], [ 109.92309614, -7.18800909, 0.0 ], [ 109.92309681, -7.18796164, 0.0 ], [ 109.92313462, -7.18793577, 0.0 ], [ 109.92317495, -7.18791217, 0.0 ], [ 109.92313535, -7.18788189, 0.0 ], [ 109.92316531, -7.18784088, 0.0 ], [ 109.92320362, -7.18781138, 0.0 ], [ 109.92324568, -7.18778942, 0.0 ], [ 109.9232648, -7.18774769, 0.0 ], [ 109.92331011, -7.18774852, 0.0 ], [ 109.92329529, -7.18770325, 0.0 ], [ 109.92334355, -7.18768317, 0.0 ], [ 109.92338917, -7.18766926, 0.0 ], [ 109.92342994, -7.18764842, 0.0 ], [ 109.92347172, -7.18762837, 0.0 ], [ 109.92352349, -7.18761176, 0.0 ], [ 109.92356844, -7.18760552, 0.0 ], [ 109.92360334, -7.18757192, 0.0 ], [ 109.92364841, -7.18756527, 0.0 ], [ 109.92372122, -7.18758247, 0.0 ], [ 109.92376813, -7.18759135, 0.0 ], [ 109.92381376, -7.18759125, 0.0 ], [ 109.92385891, -7.18760105, 0.0 ], [ 109.9238986, -7.18762797, 0.0 ], [ 109.92393492, -7.1876605, 0.0 ], [ 109.92398276, -7.18766827, 0.0 ], [ 109.92401937, -7.18764158, 0.0 ], [ 109.92406431, -7.18761757, 0.0 ], [ 109.92422947, -7.18767749, 0.0 ], [ 109.92426753, -7.18771456, 0.0 ], [ 109.92442838, -7.18783596, 0.0 ], [ 109.9244575, -7.18787188, 0.0 ], [ 109.9244844, -7.18791806, 0.0 ], [ 109.92451432, -7.18795865, 0.0 ], [ 109.92454927, -7.18799989, 0.0 ], [ 109.92457887, -7.18804041, 0.0 ], [ 109.92461402, -7.18807555, 0.0 ], [ 109.92464588, -7.1881118, 0.0 ], [ 109.92467563, -7.18814693, 0.0 ], [ 109.92471125, -7.18818544, 0.0 ], [ 109.92472701, -7.18823046, 0.0 ], [ 109.92473724, -7.18827674, 0.0 ], [ 109.92476409, -7.18831548, 0.0 ], [ 109.92479357, -7.18835207, 0.0 ], [ 109.92481577, -7.18839292, 0.0 ], [ 109.92483964, -7.18843416, 0.0 ], [ 109.92487122, -7.1884721, 0.0 ], [ 109.92490558, -7.18850865, 0.0 ], [ 109.92493493, -7.18854462, 0.0 ], [ 109.92494191, -7.18859037, 0.0 ], [ 109.92498232, -7.18861415, 0.0 ], [ 109.92501549, -7.18864909, 0.0 ], [ 109.92505591, -7.18868175, 0.0 ], [ 109.92508948, -7.18871384, 0.0 ], [ 109.92511484, -7.18875256, 0.0 ], [ 109.92513774, -7.18879514, 0.0 ], [ 109.92513034, -7.18884314, 0.0 ], [ 109.92514054, -7.18888921, 0.0 ], [ 109.92517222, -7.18892435, 0.0 ], [ 109.92517613, -7.18897501, 0.0 ], [ 109.92519854, -7.18901727, 0.0 ], [ 109.92523194, -7.18904855, 0.0 ], [ 109.92527726, -7.18905696, 0.0 ], [ 109.92530842, -7.18909177, 0.0 ], [ 109.92534573, -7.18911902, 0.0 ], [ 109.92538095, -7.18915404, 0.0 ], [ 109.92542126, -7.18917552, 0.0 ], [ 109.92545146, -7.18920945, 0.0 ], [ 109.9254895, -7.18923663, 0.0 ], [ 109.9255054, -7.18928064, 0.0 ], [ 109.92554984, -7.18929507, 0.0 ], [ 109.92558398, -7.18932823, 0.0 ], [ 109.92560495, -7.18937037, 0.0 ], [ 109.92563657, -7.18941001, 0.0 ], [ 109.92568025, -7.18942926, 0.0 ], [ 109.92572703, -7.18943886, 0.0 ], [ 109.92577263, -7.18945071, 0.0 ], [ 109.92580528, -7.18948735, 0.0 ], [ 109.92583614, -7.18952223, 0.0 ], [ 109.92586151, -7.18956301, 0.0 ], [ 109.92588709, -7.18960053, 0.0 ], [ 109.9259216, -7.18963474, 0.0 ], [ 109.92595402, -7.18967542, 0.0 ], [ 109.92598276, -7.18971664, 0.0 ], [ 109.92600946, -7.18976041, 0.0 ], [ 109.92603689, -7.18979995, 0.0 ], [ 109.92604665, -7.18984561, 0.0 ], [ 109.92608277, -7.18988029, 0.0 ], [ 109.92609448, -7.18992917, 0.0 ], [ 109.92610109, -7.18997898, 0.0 ], [ 109.92612383, -7.19001912, 0.0 ], [ 109.92615532, -7.19005613, 0.0 ], [ 109.92616712, -7.19010054, 0.0 ], [ 109.92620415, -7.19013693, 0.0 ], [ 109.92624695, -7.19015808, 0.0 ], [ 109.92628095, -7.19018825, 0.0 ], [ 109.92631233, -7.19022096, 0.0 ], [ 109.92634347, -7.19025985, 0.0 ], [ 109.926363, -7.19030088, 0.0 ], [ 109.92638891, -7.19033806, 0.0 ], [ 109.92643165, -7.19035438, 0.0 ], [ 109.92647648, -7.19037453, 0.0 ], [ 109.92652217, -7.19039612, 0.0 ], [ 109.92656658, -7.190417, 0.0 ], [ 109.92660681, -7.19044329, 0.0 ], [ 109.92664555, -7.19047771, 0.0 ], [ 109.92668711, -7.19050754, 0.0 ], [ 109.92672696, -7.19054097, 0.0 ], [ 109.92674913, -7.19058323, 0.0 ], [ 109.92676036, -7.19062707, 0.0 ], [ 109.92677384, -7.19067364, 0.0 ], [ 109.92680046, -7.19071155, 0.0 ], [ 109.92682659, -7.19074928, 0.0 ], [ 109.92685004, -7.19079343, 0.0 ], [ 109.9268685, -7.19083838, 0.0 ], [ 109.92687036, -7.19088561, 0.0 ], [ 109.92690817, -7.19091282, 0.0 ], [ 109.92694207, -7.19094402, 0.0 ], [ 109.92696405, -7.19098367, 0.0 ], [ 109.92701627, -7.19099152, 0.0 ], [ 109.9270524, -7.19102709, 0.0 ], [ 109.92709451, -7.19105799, 0.0 ], [ 109.92713186, -7.19108905, 0.0 ], [ 109.92716745, -7.19112575, 0.0 ], [ 109.92720205, -7.19116261, 0.0 ], [ 109.92722749, -7.19120009, 0.0 ], [ 109.92727316, -7.19120821, 0.0 ], [ 109.92731899, -7.19120522, 0.0 ], [ 109.92736227, -7.19123079, 0.0 ], [ 109.92740787, -7.19124086, 0.0 ], [ 109.92745487, -7.19123349, 0.0 ], [ 109.9275013, -7.19122156, 0.0 ], [ 109.9275462, -7.19124019, 0.0 ], [ 109.92757988, -7.19127358, 0.0 ], [ 109.92754208, -7.19124324, 0.0 ], [ 109.9275851, -7.19125936, 0.0 ], [ 109.927609, -7.19129834, 0.0 ], [ 109.92763525, -7.19133654, 0.0 ], [ 109.92766859, -7.19136796, 0.0 ], [ 109.92771054, -7.1913852, 0.0 ], [ 109.92773418, -7.19142612, 0.0 ], [ 109.92777817, -7.19144166, 0.0 ], [ 109.92782134, -7.19146733, 0.0 ], [ 109.92785335, -7.19150036, 0.0 ], [ 109.92787779, -7.19154371, 0.0 ], [ 109.92789433, -7.19158616, 0.0 ], [ 109.92790917, -7.19163041, 0.0 ], [ 109.92793301, -7.19167384, 0.0 ], [ 109.92797071, -7.19170685, 0.0 ], [ 109.92798698, -7.19175238, 0.0 ], [ 109.92802712, -7.19177606, 0.0 ], [ 109.92806145, -7.19180944, 0.0 ], [ 109.92809149, -7.19184892, 0.0 ], [ 109.9281122, -7.19189083, 0.0 ], [ 109.92812766, -7.19193613, 0.0 ], [ 109.92815898, -7.19197017, 0.0 ], [ 109.92818827, -7.19200582, 0.0 ], [ 109.92821714, -7.19204649, 0.0 ], [ 109.928243, -7.19208468, 0.0 ], [ 109.92827097, -7.19212541, 0.0 ], [ 109.9282989, -7.19216461, 0.0 ], [ 109.9283265, -7.19220243, 0.0 ], [ 109.92834554, -7.19224642, 0.0 ], [ 109.92837053, -7.19228666, 0.0 ], [ 109.9283972, -7.19232637, 0.0 ], [ 109.92842426, -7.19236717, 0.0 ], [ 109.92846617, -7.19239255, 0.0 ], [ 109.9285069, -7.19241842, 0.0 ], [ 109.92853354, -7.19245755, 0.0 ], [ 109.92854683, -7.1925055, 0.0 ], [ 109.92856173, -7.19255217, 0.0 ], [ 109.92857418, -7.19259893, 0.0 ], [ 109.92859741, -7.19264229, 0.0 ], [ 109.92862246, -7.19268035, 0.0 ] ] ] } },
{ "type": "Feature", "properties": { "ele": 2215.0, "name": "Jalur Cemara" }, "geometry": { "type": "Point", "coordinates": [ 109.92140534, -7.19825856, 2215.0 ] } },
{ "type": "Feature", "properties": { "ele": 2235.0, "name": "Pos 1 - Lemah Tugel" }, "geometry": { "type": "Point", "coordinates": [ 109.9220751, -7.1966051, 2235.0 ] } },
{ "type": "Feature", "properties": { "ele": 2409.0, "name": "Pos 2 - Bukit Pandang" }, "geometry": { "type": "Point", "coordinates": [ 109.92287277, -7.19094105, 2409.0 ] } },
{ "type": "Feature", "properties": { "ele": 2529.0, "name": "Pos 3" }, "geometry": { "type": "Point", "coordinates": [ 109.92417272, -7.18764388, 2529.0 ] } },
{ "type": "Feature", "properties": { "ele": 2584.0, "name": "Puncak Prau 2590 mdpl" }, "geometry": { "type": "Point", "coordinates": [ 109.92754367, -7.19123204, 2584.0 ] } },
{ "type": "Feature", "properties": { "ele": 2567.0, "name": "Area Camp - Telaga Wurung" }, "geometry": { "type": "Point", "coordinates": [ 109.92864281, -7.19269643, 2567.0 ] } }
]
}
