{
    "type": "FeatureCollection",
    "crs": {
        "type": "name",
        "properties": {
            "name": "EPSG:4326"
        }
    },
    "features": [
        {
            "type": "Feature",
            "geometry": {
                "type": "Point",
                "coordinates": [
                    109.9127771, -7.1955397
                ]
            },
            "properties": {
                "nama": "Basecamp Dwarawati",
                "id": "BC1",
                "category": "Basecamp",
                "cluster": "Gn. Prau",
				"jalur": "2.820 Meter",
				"estimasi": "&plusmn; 195 Menit",
                "status": "TUTUP",
                "dataBC": "yes"
            }
        },
        {
            "type": "Feature",
            "geometry": {
                "type": "Point",
                "coordinates": [
                    109.9131274, -7.201391
                ]
            },
            "properties": {
                "nama": "Basecamp Dieng Wetan",
                "id": "BC2",
                "category": "Basecamp",
                "cluster": "Gn. Prau",
                "jalur": "&minus;",
				"estimasi": "&plusmn; 215 Menit",
                "status": "TUTUP",
                "dataBC": "no"
            }
        },
        {
            "type": "Feature",
            "geometry": {
                "type": "Point",
                "coordinates": [
                    109.919037, -7.2055961
                ]
            },
            "properties": {
                "nama": "Basecamp Kalilembu",
                "id": "BC3",
                "category": "Basecamp",
                "cluster": "Gn. Prau",
                "jalur": "&plusmn; 3.730 Meter",
				"estimasi": "&plusmn; 215 Menit",
                "status": "TUTUP",
                "dataBC": "yes"
            }
        },
        {
            "type": "Feature",
            "geometry": {
                "type": "Point",
                "coordinates": [
                    109.9254481, -7.2095497
                ]
            },
            "properties": {
                "nama": "Basecamp Patakbanteng",
                "id": "BC4",
                "category": "Basecamp",
                "cluster": "Gn. Prau",
                "jalur": "&plusmn; 3700 Meter",
				"estimasi": "&plusmn; 210 Menit",
                "status": "TUTUP",
                "dataBC": "no"
            }
        },
        {
            "type": "Feature",
            "geometry": {
                "type": "Point",
                "coordinates": [
                    109.9517623, -7.2234586
                ]
            },
            "properties": {
                "nama": "Basecamp Igirmranak",
                "id": "BC5",
                "category": "Basecamp",
                "cluster": "Gn. Prau",
                "jalur": "&minus;",
				"estimasi": "&plusmn; 225 Menit",
                "status": "TUTUP",
                "dataBC": "no"
            }
        },
        {
            "type": "Feature",
            "geometry": {
                "type": "Point",
                "coordinates": [
                    109.9596714, -7.2253882
                ]
            },
            "properties": {
                "nama": "Basecamp Wates",
                "id": "BC6",
                "category": "Basecamp",
                "cluster": "Gn. Prau",
                "jalur": "&minus;",
				"estimasi": "&plusmn; 180 Menit",
                "status": "TUTUP",
                "dataBC": "no"
            }
        },
        {
            "type": "Feature",
            "geometry": {
                "type": "Point",
                "coordinates": [
                    110.0323489, -7.3404347
                ]
            },
            "properties": {
                "nama": "Basecamp Kledung",
                "id": "BC7",
                "category": "Basecamp",
                "cluster": "Gn. Sindoro",
                "jalur": "&plusmn; 6.970 Meter",
				"estimasi": "&plusmn; 470 Menit",
                "status": "TUTUP",
                "dataBC": "yes"
            }
        },
        {
            "type": "Feature",
            "geometry": {
                "type": "Point",
                "coordinates": [
                    110.0151023, -7.3490545
                ]
            },
            "properties": {
                "nama": "Basecamp Alang Sewu",
                "id": "BC8",
                "category": "Basecamp",
                "cluster": "Gn. Sindoro",
                "jalur": "&plusmn; 6.980 Meter",
				"estimasi": "&plusmn; 370 Menit",
                "status": "TUTUP",
                "dataBC": "yes"
            }
        },
        {
            "type": "Feature",
            "geometry": {
                "type": "Point",
                "coordinates": [
                    109.9749926, -7.2660679
                ]
            },
            "properties": {
                "nama": "Basecamp Sigedang",
                "id": "BC9",
                "category": "Basecamp",
                "cluster": "Gn. Sindoro",
                "jalur": "&minus;",
				"estimasi": "&plusmn; 405 Menit",
                "status": "TUTUP",
                "dataBC": "no"
            }
        },
        {
            "type": "Feature",
            "geometry": {
                "type": "Point",
                "coordinates": [
                    109.9749403, -7.3498694
                ]
            },
            "properties": {
                "nama": "Basecamp Bedakah",
                "id": "BC10",
                "category": "Basecamp",
                "cluster": "Gn. Sindoro",
                "jalur": "&minus;",
				"estimasi": "&minus;",
                "status": "TUTUP",
                "dataBC": "no"
            }
        },
        {
            "type": "Feature",
            "geometry": {
                "type": "Point",
                "coordinates": [
                    109.9563063, -7.3004461
                ]
            },
            "properties": {
                "nama": "Basecamp Ndoro Arum",
                "id": "BC11",
                "category": "Basecamp",
                "cluster": "Gn. Sindoro",
                "jalur": "&minus;",
				"estimasi": "&plusmn; 375 Menit",
                "status": "TUTUP",
                "dataBC": "no"
            }
        },
        {
            "type": "Feature",
            "geometry": {
                "type": "Point",
                "coordinates": [
                    110.0572479, -7.2845033
                ]
            },
            "properties": {
                "nama": "Basecamp Bansari",
                "id": "BC12",
                "category": "Basecamp",
                "cluster": "Gn. Sindoro",
                "jalur": "&minus;",
				"estimasi": "&plusmn; 580 Menit",
                "status": "TUTUP",
                "dataBC": "no"
            }
        },
        {
            "type": "Feature",
            "geometry": {
                "type": "Point",
                "coordinates": [
                    110.0315466, -7.3533706
                ]
            },
            "properties": {
                "nama": "Basecamp Garung",
                "id": "BC13",
                "category": "Basecamp",
                "cluster": "Gn. Sumbing",
                "jalur": "&minus;",
				"estimasi": "&plusmn; 600 Menit",
                "status": "TUTUP",
                "dataBC": "no"
            }
        },
        {
            "type": "Feature",
            "geometry": {
                "type": "Point",
                "coordinates": [
                    110.0211561, -7.3764694
                ]
            },
            "properties": {
                "nama": "Basecamp Bowongso",
                "id": "BC14",
                "category": "Basecamp",
                "cluster": "Gn. Sumbing",
                "jalur": "&plusmn; 7.000 Meter",
				"estimasi": "&plusmn; 780 Menit",
                "status": "TUTUP",
                "dataBC": "yes"
            }
        },
        {
            "type": "Feature",
            "geometry": {
                "type": "Point",
                "coordinates": [
                    109.9683986, -7.3354396
                ]
            },
            "properties": {
                "nama": "Basecamp Blembem",
                "id": "BC15",
                "category": "Basecamp",
                "cluster": "Gn. Kembang",
                "jalur": "&minus;",
				"estimasi": "&minus;",
                "status": "TUTUP",
                "dataBC": "no"
            }
        },
        {
            "type": "Feature",
            "geometry": {
                "type": "Point",
                "coordinates": [
                    109.9525582, -7.3104427
                ]
            },
            "properties": {
                "nama": "Basecamp Lengkong",
                "id": "BC16",
                "category": "Basecamp",
                "cluster": "Gn. Kembang",
                "jalur": "&minus;",
				"estimasi": "&minus;",
                "status": "TUTUP",
                "dataBC": "no"
            }
        },
        {
            "type": "Feature",
            "geometry": {
                "type": "Point",
                "coordinates": [
                    109.8724392, -7.2293434
                ]
            },
            "properties": {
                "nama": "Basecamp Pulosari",
                "id": "BC17",
                "category": "Basecamp",
                "cluster": "Gn. Bisma",
                "jalur": "&minus;",
				"estimasi": "&minus;",
                "status": "TUTUP",
                "dataBC": "no"
            }
        },
        {
            "type": "Feature",
            "geometry": {
                "type": "Point",
                "coordinates": [
                    109.8821505, -7.2774714
                ]
            },
            "properties": {
                "nama": "Basecamp Deroduwur",
                "id": "BC18",
                "category": "Basecamp",
                "cluster": "Gn. Bisma",
                "jalur": "&minus;",
				"estimasi": "&minus;",
                "status": "TUTUP",
                "dataBC": "no"
            }
        },
        {
            "type": "Feature",
            "geometry": {
                "type": "Point",
                "coordinates": [
                   109.9018823, -7.2275757
                ]
            },
            "properties": {
                "nama": "Basecamp Sikunang",
                "id": "BC19",
                "category": "Basecamp",
                "cluster": "Gn. Bisma",
                "jalur": "&minus;",
				"estimasi": "&plusmn; 45 Menit",
                "status": "TUTUP",
                "dataBC": "no"
            }
        },
        {
            "type": "Feature",
            "geometry": {
                "type": "Point",
                "coordinates": [
                    109.9276489, -7.2149269
                ]
            },
            "properties": {
                "nama": "Basecamp Parikesit",
                "id": "BC20",
                "category": "Basecamp",
                "cluster": "Gn. Pakuwaja",
                "jalur": "&plusmn; 3.400 Meter",
				"estimasi": "&plusmn; 180 Menit",
                "status": "TUTUP",
                "dataBC": "yes"
            }
        },
        {
            "type": "Feature",
            "geometry": {
                "type": "Point",
                "coordinates": [
                   110.0480352, -7.3310174
                ]
            },
            "properties": {
                "nama": "Basecamp Sipetung",
                "id": "BC21",
                "category": "Basecamp",
                "cluster": "Gn. Sumbing",
                "jalur": "&minus;",
				"estimasi": "&plusmn; 630 Menit",
                "status": "TUTUP",
                "dataBC": "no"
            }
        },
        {
            "type": "Feature",
            "geometry": {
                "type": "Point",
                "coordinates": [
                   110.0947653, -7.3332454
                ]
            },
            "properties": {
                "nama": "Basecamp Cepit",
                "id": "BC22",
                "category": "Basecamp",
                "cluster": "Gn. Sumbing",
                "jalur": "&minus;",
				"estimasi": "&plusmn; 570 Menit",
                "status": "TUTUP",
                "dataBC": "no"
            }
        },
        {
            "type": "Feature",
            "geometry": {
                "type": "Point",
                "coordinates": [
                   110.1028917, -7.4119383
                ]
            },
            "properties": {
                "nama": "Basecamp Mangli",
                "id": "BC23",
                "category": "Basecamp",
                "cluster": "Gn. Sumbing",
                "jalur": "&minus;",
				"estimasi": "&plusmn; 450 Menit",
                "status": "TUTUP",
                "dataBC": "no"
            }
        },
        {
            "type": "Feature",
            "geometry": {
                "type": "Point",
                "coordinates": [
                   110.0769924, -7.417651
                ]
            },
            "properties": {
                "nama": "Basecamp Butuh",
                "id": "BC24",
                "category": "Basecamp",
                "cluster": "Gn. Sumbing",
                "jalur": "&plusmn; 7.200 Meter",
				"estimasi": "&plusmn; 350 Menit",
                "status": "TUTUP",
                "dataBC": "no"
            }
        },
        {
            "type": "Feature",
            "geometry": {
                "type": "Point",
                "coordinates": [
                   109.8891968, -7.2804273
                ]
            },
            "properties": {
                "nama": "Basecamp Silandak",
                "id": "BC25",
                "category": "Basecamp",
                "cluster": "Gn. Bisma",
                "jalur": "&plusmn; 4.270 Meter",
				"estimasi": "&plusmn; 195 Menit",
                "status": "TUTUP",
                "dataBC": "yes"
            }
        }
        
    ]
}
